id;nombre;descripcion;fecha_inicio;fecha_cumplimiento;tipo_hito;fecha_creacion;is_activo
1;SCSI;Genérico program copy;2022-01-02T22:42:24;2022-01-03T08:16:36;PRD;2022-01-03T00:47:54;true
2;Paradigma logística Interno;Avon;2022-01-03T03:22:46;2022-01-02T15:05:42;PRD;2022-01-03T02:31:58;false
3;copy calculate;infrastructures;2022-01-03T03:58:13;2022-01-02T17:08:18;PRD;2022-01-03T09:44:08;true
4;reinvent Singapur digital;Zapatos;2022-01-03T09:04:25;2022-01-03T06:44:28;QA;2022-01-03T02:35:00;true
5;extensible payment;Guantes action-items;2022-01-03T00:34:56;2022-01-03T00:41:57;QA;2022-01-02T15:29:33;true
6;Masía copying;deposit Taiwan Informática;2022-01-03T05:27:15;2022-01-03T06:30:14;QA;2022-01-02T23:56:14;false
7;wireless;Respuesta Coche Bicicleta;2022-01-03T08:29:47;2022-01-02T18:53:40;PRD;2022-01-03T08:11:33;true
8;Plástico compressing;Metal payment;2022-01-03T00:41:56;2022-01-02T12:50:33;QA;2022-01-03T10:51:44;false
9;mobile productize;Bicicleta SMTP;2022-01-02T22:35:03;2022-01-03T06:04:27;PRD;2022-01-03T08:12:07;false
10;Integración blockchains;SCSI ROI;2022-01-03T02:13:56;2022-01-02T18:45:45;RLS;2022-01-03T07:22:05;false
