id;nombre;fecha_inicio;fecha_fin;fecha_creacion;is_activo;promesa;titulo_producto_digital;descripcion_producto_digital
1;open-source Gris Borders;2022-01-02T16:03:52;2022-01-02T14:17:31;2022-01-03T06:01:59;true;Money Rojo presupuestaria;copy optical Blanco;Adelante
2;Joyería transmitter Cataluña;2022-01-02T19:07:06;2022-01-03T10:54:07;2022-01-03T08:40:40;true;1080p;Morado Acero Indonesia;Berkshire override
3;digital Pelota Genérico;2022-01-03T03:53:42;2022-01-03T05:45:53;2022-01-02T16:42:55;false;markets Loan Loan;revolutionize e-tailers Castilla;Dollar
4;primary Algodón;2022-01-02T20:51:08;2022-01-03T07:38:42;2022-01-02T22:08:22;true;Plástico Gorro feed;redundant real-time Queso;Artesanal International strategize
5;driver Re-implementado;2022-01-02T14:07:26;2022-01-03T10:32:47;2022-01-03T10:22:03;false;Bedfordshire protocol;Metal conocimiento;Ensalada Extramuros
6;Verde;2022-01-02T21:23:23;2022-01-03T04:52:08;2022-01-03T01:09:04;true;synthesizing index;ADP;bluetooth withdrawal
7;New 1080p;2022-01-03T01:25:34;2022-01-02T23:20:41;2022-01-03T06:35:12;true;Plástico;Dirham Ensalada;global Dinánmico middleware
8;Queso;2022-01-02T13:18:11;2022-01-02T17:36:47;2022-01-02T13:08:22;true;invoice;Increible óptima Market;Acero input Granito
9;Terrenos Pollo capacidad;2022-01-03T07:30:29;2022-01-02T18:27:19;2022-01-02T15:54:39;false;Extrarradio;Account;maximize Ejecutivo
10;Granito;2022-01-03T06:14:04;2022-01-02T13:44:17;2022-01-02T16:56:32;false;port Rojo Artesanal;León Informática;Metal
